Change Component Comment : Designator=D14 Old Comment=BAV70WT1G New Comment=BAV199W-7
Change Component Comment : Designator=D15 Old Comment=BAV70WT1G New Comment=BAV199W-7
Change Component Comment : Designator=D16 Old Comment=BAV70WT1G New Comment=BAV199W-7
Change Component Comment : Designator=D17 Old Comment=BAV70WT1G New Comment=BAV199W-7
Change Component Comment : Designator=D18 Old Comment=BAV70WT1G New Comment=BAV199W-7
Change Component Comment : Designator=D19 Old Comment=BAV70WT1G New Comment=BAV199W-7
